{
  "Customer": {
    "dbConfig": {
      "host": "localhost",
      "port": 5984,
      "dbName": "notification"
    },
    "properties": {
      "useNewUrlParser": true
    },
    "credit": {
      "initialLimit": 100,
      "initialDays": 1
    }
  }
}